{
  "type": "service_account",
  "project_id": "focal-slice-337018",
  "private_key_id": "123713b74db084a153f5e6765e908371da3673ea",
  "private_key": "-----BEGIN PRIVATE KEY-----\nMIIEvQIBADANBgkqhkiG9w0BAQEFAASCBKcwggSjAgEAAoIBAQCiDDx7w72WFMiL\nhzJrpYG73QO2vXKMmKg+az10TSdyyetsgGzJRdVaze8cGGl3q+pFEufifuhXAfHH\n2/24k6k8zrtS92mGa6+VladLV0eFjDP4RRlpelvjAw6kee71AUhNdcJtqFIolde9\nhrrdJ2/T7eY81DhvqbnS7Z0BktUe0tAPKP2axUZ3tY8dImbqDb17MG5KdE2EAU8I\nMuNmIwldXtoZd/0VLuEKbF6dqs+W4nYGjiixcdHzWTZmnWCXlfYsrsQw3T9MKthl\nEDRNz0koDLYYOGmC5nN0fRFFCDt0TeJITSWy/lSTUj7Z5HmrwX4DwNz0OkYHVDBS\nxNb7xkm1AgMBAAECggEATXZL812+Yt/MfeZC0/Jp8cPU4qXs/Ah9ZFkfJ1k6YkTj\npRo+5nfbZWzLwEJrKCml8x72ee7wYacsTL18q57qZ4brRN3AM+GGLZs8PWebaNt8\nfFGLtEApbHsppLYk5DmYtm50YrbzjzMRzid5a/5OFqDCTpGj6LzZd1reksH93p1k\n0JgRgR298LPkZYl6Hu2Qtzu2kOSrIUWjYO+/Za2WHkfmSexIh4UY8ajGZ66Gdzig\nTkE7CghHcLZMDNRwCa39VkajYF0hww+GFfgIL9MBO84kYAIfUlZKi+ISTT2dUa8K\n/cT6uur2DQ/eJ4bzChuPkQNDPDckVbSqZKFOPcLggQKBgQDQcqlY2OsbZClQa3Iy\ncXJ5F4uvogEhuNVtCMpb8dRkZ4jjLxhOKg8mctSzLhz4zMTXIrtvDUO3TV6P5p10\nkxWCxuzl14XV7fvkUnezYdd5p0Zc+ibxk1Stb+YPXytLpKLbzjfTJ2JaYnNtO9iT\n+KzNq8qW0hqjrAYKjNZ6/1nvvwKBgQDHA9Aqb1udOuMmKugqui2TDxSM3yP4wRkE\ndfgVysE2QKN1l9osAs7snM7owHIBXZquyOCCHPZDf47xQs6GkwfYj01LmFtRDDIE\nPX7kfFm6/FWk1ZUBDTPscHuQzvu02cPk5ruxNL9mxmUiOh12KjOYtOYoU9pVonz0\nJQSxgFYjiwKBgBvOD7TgSow+0hv+GR+Nbn2knGdzLr92zlFbCNM28OPrw6C6WX2j\nsp2oV6MHFapCdkdURLhNhqje0yxS0NIKBKaLLnKCS0H8GsucDIeLF5kMrSAd5i/3\nPSZddMy8HyRZ87dqTJwH9uCjnU4G257xXuuYbM+teww2GCA0JTAG+9I1AoGAAvLY\ng7hwqAy2Ttt14yQtBq/Dgy7PLqFVyI4i5dfCMxaUFWrxjZNhE3pjSmmHhuOnJg3N\n3b+mGmvqZ0KxIqdNB3VgFM2mFLZUi2GJ3sLE5ZNVhYKwmXpjmY41Fnkqm4xabarJ\nfx+j8lbgKrintRd8+jc77b8IThqBNXDS9/pJzG8CgYEAsCFCH13gPj0HeJJitlsx\nvBoLXkaI9JhfqOEBKqmEKpIozkduPKD7KTc5W7SNC2/IXIu+1N2coEjrXOAl9s2b\nY9mvfEAL88TmqrsG13ouySgq3FzwnYCLSfpHxq5CtLiAsx5sstiQGsroddQAyXBu\nllv9nGE7rgzgVi+VFntRYxc=\n-----END PRIVATE KEY-----\n",
  "client_email": "570833330574-compute@developer.gserviceaccount.com",
  "client_id": "115658560688525013141",
  "auth_uri": "https://accounts.google.com/o/oauth2/auth",
  "token_uri": "https://oauth2.googleapis.com/token",
  "auth_provider_x509_cert_url": "https://www.googleapis.com/oauth2/v1/certs",
  "client_x509_cert_url": "https://www.googleapis.com/robot/v1/metadata/x509/570833330574-compute%40developer.gserviceaccount.com"
}
